<?xml version="1.0" encoding="UTF-8" standalone="no"?>
<!-- Created with Inkscape (http://www.inkscape.org/) -->

<svg
   xmlns:dc="http://purl.org/dc/elements/1.1/"
   xmlns:cc="http://creativecommons.org/ns#"
   xmlns:rdf="http://www.w3.org/1999/02/22-rdf-syntax-ns#"
   xmlns:svg="http://www.w3.org/2000/svg"
   xmlns="http://www.w3.org/2000/svg"
   xmlns:sodipodi="http://sodipodi.sourceforge.net/DTD/sodipodi-0.dtd"
   xmlns:inkscape="http://www.inkscape.org/namespaces/inkscape"
   width="400.00003"
   height="520.00006"
   viewBox="0 0 105.83334 137.58335"
   version="1.1"
   id="svg8"
   inkscape:version="0.92.1 r15371"
   sodipodi:docname="Graph Paper - Wide Grid.svg">
  <defs
     id="defs2" />
  <sodipodi:namedview
     id="base"
     pagecolor="#ffffff"
     bordercolor="#666666"
     borderopacity="1.0"
     inkscape:pageopacity="0.0"
     inkscape:pageshadow="2"
     inkscape:zoom="1.24"
     inkscape:cx="26.659212"
     inkscape:cy="207.27312"
     inkscape:document-units="px"
     inkscape:current-layer="layer1"
     showgrid="false"
     units="px"
     inkscape:window-width="1920"
     inkscape:window-height="1001"
     inkscape:window-x="-9"
     inkscape:window-y="-9"
     inkscape:window-maximized="1"
     fit-margin-top="0"
     fit-margin-left="0"
     fit-margin-right="0"
     fit-margin-bottom="0" />
  <metadata
     id="metadata5">
    <rdf:RDF>
      <cc:Work
         rdf:about="">
        <dc:format>image/svg+xml</dc:format>
        <dc:type
           rdf:resource="http://purl.org/dc/dcmitype/StillImage" />
        <dc:title />
      </cc:Work>
    </rdf:RDF>
  </metadata>
  <g
     inkscape:label="Layer 1"
     inkscape:groupmode="layer"
     id="layer1"
     transform="translate(-105.89948,-21.833334)">
    <path
       d="M 0.066146,21.833334 V 297 M 10.64948,21.833334 V 297 M 21.232813,21.833334 V 297 M 31.816146,21.833334 V 297 M 42.39948,21.833334 V 297 M 52.982814,21.833334 V 297 M 63.566147,21.833334 V 297 M 74.149481,21.833334 V 297 M 84.732814,21.833334 V 297 M 95.316147,21.833334 V 297 M 105.89948,21.833334 V 297 M 116.48282,21.833334 V 297 M 127.06615,21.833334 V 297 M 137.64949,21.833334 V 297 M 148.23282,21.833334 V 297 M 158.81615,21.833334 V 297 M 169.39949,21.833334 V 297 M 179.98282,21.833334 V 297 M 190.56615,21.833334 V 297 M 201.14949,21.833334 V 297 M 0.066146,21.833334 H 211.73282 M 0.066146,32.416668 H 211.73282 M 0.066146,43.000001 H 211.73282 M 0.066146,53.583334 H 211.73282 M 0.066146,64.166668 H 211.73282 M 0.066146,74.750002 H 211.73282 M 0.066146,85.333335 H 211.73282 M 0.066146,95.916669 H 211.73282 M 0.066146,106.5 H 211.73282 M 0.066146,117.08333 H 211.73282 M 0.066146,127.66666 H 211.73282 M 0.066146,138.25 H 211.73282 M 0.066146,148.83333 H 211.73282 M 0.066146,159.41667 H 211.73282 M 0.066146,170 H 211.73282 M 0.066146,180.58333 H 211.73282 M 0.066146,191.16667 H 211.73282 M 0.066146,201.75 H 211.73282 M 0.066146,212.33333 H 211.73282 M 0.066146,222.91667 H 211.73282 M 0.066146,233.5 H 211.73282 M 0.066146,244.08333 H 211.73282 M 0.066146,254.66667 H 211.73282 M 0.066146,265.25 H 211.73282 M 0.066146,275.83333 H 211.73282 M 0.066146,286.41667 H 211.73282"
       style="fill:none;stroke:#000000;stroke-width:0.02645833;stroke-miterlimit:4;stroke-dasharray:none"
       id="path4519"
       inkscape:connector-curvature="0" />
    <path
       style="fill:none;stroke:#000000;stroke-width:0.79374999;stroke-linecap:butt;stroke-linejoin:miter;stroke-miterlimit:4;stroke-dasharray:none;stroke-opacity:1"
       d="M 0.066146,159.41667 H 211.73282"
       id="path4521"
       inkscape:connector-curvature="0" />
    <path
       style="fill:none;stroke:#000000;stroke-width:0.79374999;stroke-linecap:butt;stroke-linejoin:miter;stroke-miterlimit:4;stroke-dasharray:none;stroke-opacity:1"
       d="M 105.89948,21.833334 V 297.00001"
       id="path4523"
       inkscape:connector-curvature="0" />
    <flowRoot
       xml:space="preserve"
       id="flowRoot4544"
       style="font-style:normal;font-weight:normal;font-size:26.66666603px;line-height:1.25;font-family:sans-serif;letter-spacing:0px;word-spacing:0px;fill:#000000;fill-opacity:1;stroke:none"
       transform="matrix(0.26458333,0,0,0.26458333,0.93839991,28.96836)"><flowRegion
         id="flowRegion4546"><rect
           id="rect4548"
           width="361.53845"
           height="362.63736"
           x="627.47253"
           y="-133.8461" /></flowRegion><flowPara
         id="flowPara4550">These are 40 px grids with the origin at 0,0</flowPara></flowRoot>    <g
       id="g4726">
      <path
         inkscape:connector-curvature="0"
         id="path4497"
         d="m 127.06614,156.77085 v 5.29167"
         style="fill:none;stroke:#000000;stroke-width:0.51354223;stroke-linecap:butt;stroke-linejoin:miter;stroke-miterlimit:4;stroke-dasharray:none;stroke-opacity:1" />
      <path
         style="fill:none;stroke:#000000;stroke-width:0.51354223;stroke-linecap:butt;stroke-linejoin:miter;stroke-miterlimit:4;stroke-dasharray:none;stroke-opacity:1"
         d="m 148.23281,156.77085 v 5.29167"
         id="path4501"
         inkscape:connector-curvature="0" />
      <path
         inkscape:connector-curvature="0"
         id="path4505"
         d="m 169.39948,156.77085 v 5.29167"
         style="fill:none;stroke:#000000;stroke-width:0.51354223;stroke-linecap:butt;stroke-linejoin:miter;stroke-miterlimit:4;stroke-dasharray:none;stroke-opacity:1" />
      <path
         style="fill:none;stroke:#000000;stroke-width:0.51354223;stroke-linecap:butt;stroke-linejoin:miter;stroke-miterlimit:4;stroke-dasharray:none;stroke-opacity:1"
         d="m 190.56615,156.77085 v 5.29167"
         id="path4509"
         inkscape:connector-curvature="0" />
      <path
         style="fill:none;stroke:#000000;stroke-width:0.51354223;stroke-linecap:butt;stroke-linejoin:miter;stroke-miterlimit:4;stroke-dasharray:none;stroke-opacity:1"
         d="m 84.725125,162.06252 v -5.29167"
         id="path4517"
         inkscape:connector-curvature="0" />
      <path
         inkscape:connector-curvature="0"
         id="path4522"
         d="m 63.558427,162.06252 v -5.29167"
         style="fill:none;stroke:#000000;stroke-width:0.51354223;stroke-linecap:butt;stroke-linejoin:miter;stroke-miterlimit:4;stroke-dasharray:none;stroke-opacity:1" />
      <path
         style="fill:none;stroke:#000000;stroke-width:0.51354223;stroke-linecap:butt;stroke-linejoin:miter;stroke-miterlimit:4;stroke-dasharray:none;stroke-opacity:1"
         d="m 42.39173,162.06252 v -5.29167"
         id="path4526"
         inkscape:connector-curvature="0" />
      <path
         inkscape:connector-curvature="0"
         id="path4530"
         d="m 21.225032,162.06252 v -5.29167"
         style="fill:none;stroke:#000000;stroke-width:0.51354223;stroke-linecap:butt;stroke-linejoin:miter;stroke-miterlimit:4;stroke-dasharray:none;stroke-opacity:1" />
    </g>
    <g
       id="g4716">
      <path
         style="fill:none;stroke:#000000;stroke-width:0.26458332;stroke-linecap:butt;stroke-linejoin:miter;stroke-miterlimit:4;stroke-dasharray:none;stroke-opacity:1"
         d="m 116.48281,157.43231 v 3.96875"
         id="path4499"
         inkscape:connector-curvature="0" />
      <path
         inkscape:connector-curvature="0"
         id="path4503"
         d="m 137.64948,157.43231 v 3.96875"
         style="fill:none;stroke:#000000;stroke-width:0.26458332;stroke-linecap:butt;stroke-linejoin:miter;stroke-miterlimit:4;stroke-dasharray:none;stroke-opacity:1" />
      <path
         style="fill:none;stroke:#000000;stroke-width:0.26458332;stroke-linecap:butt;stroke-linejoin:miter;stroke-miterlimit:4;stroke-dasharray:none;stroke-opacity:1"
         d="m 158.81615,157.43231 v 3.96875"
         id="path4507"
         inkscape:connector-curvature="0" />
      <path
         inkscape:connector-curvature="0"
         id="path4511"
         d="m 179.98282,157.43231 v 3.96875"
         style="fill:none;stroke:#000000;stroke-width:0.26458332;stroke-linecap:butt;stroke-linejoin:miter;stroke-miterlimit:4;stroke-dasharray:none;stroke-opacity:1" />
      <path
         style="fill:none;stroke:#000000;stroke-width:0.26458332;stroke-linecap:butt;stroke-linejoin:miter;stroke-miterlimit:4;stroke-dasharray:none;stroke-opacity:1"
         d="m 201.14949,157.43231 v 3.96875"
         id="path4515"
         inkscape:connector-curvature="0" />
      <path
         inkscape:connector-curvature="0"
         id="path4520"
         d="m 95.308469,161.40106 v -3.96875"
         style="fill:none;stroke:#000000;stroke-width:0.26458332;stroke-linecap:butt;stroke-linejoin:miter;stroke-miterlimit:4;stroke-dasharray:none;stroke-opacity:1" />
      <path
         style="fill:none;stroke:#000000;stroke-width:0.26458332;stroke-linecap:butt;stroke-linejoin:miter;stroke-miterlimit:4;stroke-dasharray:none;stroke-opacity:1"
         d="m 74.141771,161.40106 v -3.96875"
         id="path4524"
         inkscape:connector-curvature="0" />
      <path
         inkscape:connector-curvature="0"
         id="path4528"
         d="m 52.975074,161.40106 v -3.96875"
         style="fill:none;stroke:#000000;stroke-width:0.26458332;stroke-linecap:butt;stroke-linejoin:miter;stroke-miterlimit:4;stroke-dasharray:none;stroke-opacity:1" />
      <path
         style="fill:none;stroke:#000000;stroke-width:0.26458332;stroke-linecap:butt;stroke-linejoin:miter;stroke-miterlimit:4;stroke-dasharray:none;stroke-opacity:1"
         d="m 31.808376,161.40106 v -3.96875"
         id="path4532"
         inkscape:connector-curvature="0" />
      <path
         inkscape:connector-curvature="0"
         id="path4536"
         d="m 10.641679,161.40106 v -3.96875"
         style="fill:none;stroke:#000000;stroke-width:0.26458332;stroke-linecap:butt;stroke-linejoin:miter;stroke-miterlimit:4;stroke-dasharray:none;stroke-opacity:1" />
    </g>
    <g
       id="g4690">
      <path
         inkscape:connector-curvature="0"
         id="path4582"
         d="m 103.25364,138.25001 h 5.29167"
         style="fill:none;stroke:#000000;stroke-width:0.51354223;stroke-linecap:butt;stroke-linejoin:miter;stroke-miterlimit:4;stroke-dasharray:none;stroke-opacity:1" />
      <path
         style="fill:none;stroke:#000000;stroke-width:0.51354223;stroke-linecap:butt;stroke-linejoin:miter;stroke-miterlimit:4;stroke-dasharray:none;stroke-opacity:1"
         d="m 103.25364,117.08331 h 5.29167"
         id="path4586"
         inkscape:connector-curvature="0" />
      <path
         inkscape:connector-curvature="0"
         id="path4590"
         d="m 103.25364,95.91661 h 5.29167"
         style="fill:none;stroke:#000000;stroke-width:0.51354223;stroke-linecap:butt;stroke-linejoin:miter;stroke-miterlimit:4;stroke-dasharray:none;stroke-opacity:1" />
      <path
         style="fill:none;stroke:#000000;stroke-width:0.51354223;stroke-linecap:butt;stroke-linejoin:miter;stroke-miterlimit:4;stroke-dasharray:none;stroke-opacity:1"
         d="m 103.25364,74.749912 h 5.29167"
         id="path4594"
         inkscape:connector-curvature="0" />
      <path
         inkscape:connector-curvature="0"
         id="path4598"
         d="m 103.25364,53.583215 h 5.29167"
         style="fill:none;stroke:#000000;stroke-width:0.51354223;stroke-linecap:butt;stroke-linejoin:miter;stroke-miterlimit:4;stroke-dasharray:none;stroke-opacity:1" />
      <path
         style="fill:none;stroke:#000000;stroke-width:0.51354223;stroke-linecap:butt;stroke-linejoin:miter;stroke-miterlimit:4;stroke-dasharray:none;stroke-opacity:1"
         d="m 103.25364,32.416548 h 5.29167"
         id="path4624"
         inkscape:connector-curvature="0" />
      <path
         style="fill:none;stroke:#000000;stroke-width:0.51354223;stroke-linecap:butt;stroke-linejoin:miter;stroke-miterlimit:4;stroke-dasharray:none;stroke-opacity:1"
         d="m 108.54544,180.59103 h -5.29167"
         id="path4628"
         inkscape:connector-curvature="0" />
      <path
         inkscape:connector-curvature="0"
         id="path4632"
         d="m 108.54544,201.75773 h -5.29167"
         style="fill:none;stroke:#000000;stroke-width:0.51354223;stroke-linecap:butt;stroke-linejoin:miter;stroke-miterlimit:4;stroke-dasharray:none;stroke-opacity:1" />
      <path
         style="fill:none;stroke:#000000;stroke-width:0.51354223;stroke-linecap:butt;stroke-linejoin:miter;stroke-miterlimit:4;stroke-dasharray:none;stroke-opacity:1"
         d="m 108.54544,222.92443 h -5.29167"
         id="path4636"
         inkscape:connector-curvature="0" />
      <path
         inkscape:connector-curvature="0"
         id="path4640"
         d="m 108.54544,244.09113 h -5.29167"
         style="fill:none;stroke:#000000;stroke-width:0.51354223;stroke-linecap:butt;stroke-linejoin:miter;stroke-miterlimit:4;stroke-dasharray:none;stroke-opacity:1" />
      <path
         style="fill:none;stroke:#000000;stroke-width:0.51354223;stroke-linecap:butt;stroke-linejoin:miter;stroke-miterlimit:4;stroke-dasharray:none;stroke-opacity:1"
         d="m 108.54544,265.25782 h -5.29167"
         id="path4644"
         inkscape:connector-curvature="0" />
      <path
         inkscape:connector-curvature="0"
         id="path4648"
         d="m 108.54544,286.42449 h -5.29167"
         style="fill:none;stroke:#000000;stroke-width:0.51354223;stroke-linecap:butt;stroke-linejoin:miter;stroke-miterlimit:4;stroke-dasharray:none;stroke-opacity:1" />
    </g>
    <g
       id="g4704">
      <path
         style="fill:none;stroke:#000000;stroke-width:0.26458332;stroke-linecap:butt;stroke-linejoin:miter;stroke-miterlimit:4;stroke-dasharray:none;stroke-opacity:1"
         d="m 103.9151,148.83335 h 3.96875"
         id="path4584"
         inkscape:connector-curvature="0" />
      <path
         inkscape:connector-curvature="0"
         id="path4588"
         d="m 103.9151,127.66665 h 3.96875"
         style="fill:none;stroke:#000000;stroke-width:0.26458332;stroke-linecap:butt;stroke-linejoin:miter;stroke-miterlimit:4;stroke-dasharray:none;stroke-opacity:1" />
      <path
         style="fill:none;stroke:#000000;stroke-width:0.26458332;stroke-linecap:butt;stroke-linejoin:miter;stroke-miterlimit:4;stroke-dasharray:none;stroke-opacity:1"
         d="m 103.9151,106.49995 h 3.96875"
         id="path4592"
         inkscape:connector-curvature="0" />
      <path
         inkscape:connector-curvature="0"
         id="path4596"
         d="m 103.9151,85.333256 h 3.96875"
         style="fill:none;stroke:#000000;stroke-width:0.26458332;stroke-linecap:butt;stroke-linejoin:miter;stroke-miterlimit:4;stroke-dasharray:none;stroke-opacity:1" />
      <path
         style="fill:none;stroke:#000000;stroke-width:0.26458332;stroke-linecap:butt;stroke-linejoin:miter;stroke-miterlimit:4;stroke-dasharray:none;stroke-opacity:1"
         d="m 103.9151,64.166559 h 3.96875"
         id="path4600"
         inkscape:connector-curvature="0" />
      <path
         inkscape:connector-curvature="0"
         id="path4626"
         d="m 103.9151,42.999892 h 3.96875"
         style="fill:none;stroke:#000000;stroke-width:0.26458332;stroke-linecap:butt;stroke-linejoin:miter;stroke-miterlimit:4;stroke-dasharray:none;stroke-opacity:1" />
      <path
         inkscape:connector-curvature="0"
         id="path4630"
         d="m 107.88398,170.00769 h -3.96875"
         style="fill:none;stroke:#000000;stroke-width:0.26458332;stroke-linecap:butt;stroke-linejoin:miter;stroke-miterlimit:4;stroke-dasharray:none;stroke-opacity:1" />
      <path
         style="fill:none;stroke:#000000;stroke-width:0.26458332;stroke-linecap:butt;stroke-linejoin:miter;stroke-miterlimit:4;stroke-dasharray:none;stroke-opacity:1"
         d="m 107.88398,191.17439 h -3.96875"
         id="path4634"
         inkscape:connector-curvature="0" />
      <path
         inkscape:connector-curvature="0"
         id="path4638"
         d="m 107.88398,212.34109 h -3.96875"
         style="fill:none;stroke:#000000;stroke-width:0.26458332;stroke-linecap:butt;stroke-linejoin:miter;stroke-miterlimit:4;stroke-dasharray:none;stroke-opacity:1" />
      <path
         style="fill:none;stroke:#000000;stroke-width:0.26458332;stroke-linecap:butt;stroke-linejoin:miter;stroke-miterlimit:4;stroke-dasharray:none;stroke-opacity:1"
         d="m 107.88398,233.50778 h -3.96875"
         id="path4642"
         inkscape:connector-curvature="0" />
      <path
         inkscape:connector-curvature="0"
         id="path4646"
         d="m 107.88398,254.67448 h -3.96875"
         style="fill:none;stroke:#000000;stroke-width:0.26458332;stroke-linecap:butt;stroke-linejoin:miter;stroke-miterlimit:4;stroke-dasharray:none;stroke-opacity:1" />
      <path
         style="fill:none;stroke:#000000;stroke-width:0.26458332;stroke-linecap:butt;stroke-linejoin:miter;stroke-miterlimit:4;stroke-dasharray:none;stroke-opacity:1"
         d="m 107.88398,275.84115 h -3.96875"
         id="path4650"
         inkscape:connector-curvature="0" />
    </g>
    <text
       transform="scale(1.0000099,0.9999901)"
       id="text4579"
       y="164.3269"
       x="93.287308"
       style="font-style:normal;font-weight:normal;font-size:2.53889179px;line-height:1.25;font-family:sans-serif;letter-spacing:0px;word-spacing:0px;fill:#000000;fill-opacity:0.78431373;stroke:none;stroke-width:0.19041875"
       xml:space="preserve"><tspan
         style="font-size:2.53889179px;fill:#000000;fill-opacity:0.78431373;stroke-width:0.19041875"
         y="164.3269"
         x="93.287308"
         id="tspan4577"
         sodipodi:role="line">-1</tspan></text>
    <text
       xml:space="preserve"
       style="font-style:normal;font-weight:normal;font-size:3.52777791px;line-height:1.25;font-family:sans-serif;letter-spacing:0px;word-spacing:0px;fill:#000000;fill-opacity:0.78431373;stroke:none;stroke-width:0.26458594"
       x="82.665619"
       y="164.70999"
       id="text4583"
       transform="scale(1.0000099,0.9999901)"><tspan
         sodipodi:role="line"
         id="tspan4581"
         x="82.665619"
         y="164.70999"
         style="font-size:3.52777791px;fill:#000000;fill-opacity:0.78431373;stroke-width:0.26458594">-2</tspan></text>
    <text
       transform="scale(1.0000099,0.9999901)"
       id="text4587"
       y="164.28989"
       x="72.372177"
       style="font-style:normal;font-weight:normal;font-size:2.4455862px;line-height:1.25;font-family:sans-serif;letter-spacing:0px;word-spacing:0px;fill:#000000;fill-opacity:0.78431373;stroke:none;stroke-width:0.18342076"
       xml:space="preserve"><tspan
         style="font-size:2.4455862px;fill:#000000;fill-opacity:0.78431373;stroke-width:0.18342076"
         y="164.28989"
         x="72.372177"
         id="tspan4585"
         sodipodi:role="line">-3</tspan></text>
    <text
       xml:space="preserve"
       style="font-style:normal;font-weight:normal;font-size:3.52777791px;line-height:1.25;font-family:sans-serif;letter-spacing:0px;word-spacing:0px;fill:#000000;fill-opacity:0.78431373;stroke:none;stroke-width:0.26458594"
       x="61.690372"
       y="164.70999"
       id="text4591"
       transform="scale(1.0000099,0.9999901)"><tspan
         sodipodi:role="line"
         id="tspan4589"
         x="61.690372"
         y="164.70999"
         style="font-size:3.52777791px;fill:#000000;fill-opacity:0.78431373;stroke-width:0.26458594">-4</tspan></text>
    <text
       transform="scale(1.0000099,0.9999901)"
       id="text4595"
       y="164.28912"
       x="51.356422"
       style="font-style:normal;font-weight:normal;font-size:2.49546337px;line-height:1.25;font-family:sans-serif;letter-spacing:0px;word-spacing:0px;fill:#000000;fill-opacity:0.78431373;stroke:none;stroke-width:0.18716158"
       xml:space="preserve"><tspan
         style="font-size:2.49546337px;fill:#000000;fill-opacity:0.78431373;stroke-width:0.18716158"
         y="164.28912"
         x="51.356422"
         id="tspan4593"
         sodipodi:role="line">-5</tspan></text>
    <text
       xml:space="preserve"
       style="font-style:normal;font-weight:normal;font-size:3.52777791px;line-height:1.25;font-family:sans-serif;letter-spacing:0px;word-spacing:0px;fill:#000000;fill-opacity:0.78431373;stroke:none;stroke-width:0.26458594"
       x="40.489464"
       y="164.70999"
       id="text4599"
       transform="scale(1.0000099,0.9999901)"><tspan
         sodipodi:role="line"
         id="tspan4597"
         x="40.489464"
         y="164.70999"
         style="font-size:3.52777791px;fill:#000000;fill-opacity:0.78431373;stroke-width:0.26458594">-6</tspan></text>
    <text
       transform="scale(1.0000099,0.9999901)"
       id="text4603"
       y="164.3269"
       x="30.066076"
       style="font-style:normal;font-weight:normal;font-size:2.54741716px;line-height:1.25;font-family:sans-serif;letter-spacing:0px;word-spacing:0px;fill:#000000;fill-opacity:0.78431373;stroke:none;stroke-width:0.19105816"
       xml:space="preserve"><tspan
         style="font-size:2.54741716px;fill:#000000;fill-opacity:0.78431373;stroke-width:0.19105816"
         y="164.3269"
         x="30.066076"
         id="tspan4601"
         sodipodi:role="line">-7</tspan></text>
    <text
       xml:space="preserve"
       style="font-style:normal;font-weight:normal;font-size:3.52777791px;line-height:1.25;font-family:sans-serif;letter-spacing:0px;word-spacing:0px;fill:#000000;fill-opacity:0.78431373;stroke:none;stroke-width:0.26458594"
       x="19.434971"
       y="164.70988"
       id="text4607"
       transform="scale(1.0000099,0.9999901)"><tspan
         sodipodi:role="line"
         id="tspan4605"
         x="19.434971"
         y="164.70988"
         style="font-size:3.52777791px;fill:#000000;fill-opacity:0.78431373;stroke-width:0.26458594">-8</tspan></text>
    <text
       transform="scale(1.0000099,0.9999901)"
       id="text4611"
       y="164.29221"
       x="8.9111843"
       style="font-style:normal;font-weight:normal;font-size:2.45032573px;line-height:1.25;font-family:sans-serif;letter-spacing:0px;word-spacing:0px;fill:#000000;fill-opacity:0.78431373;stroke:none;stroke-width:0.18377623"
       xml:space="preserve"><tspan
         style="font-size:2.45032573px;fill:#000000;fill-opacity:0.78431373;stroke-width:0.18377623"
         y="164.29221"
         x="8.9111843"
         id="tspan4609"
         sodipodi:role="line">-9</tspan></text>
    <g
       id="g5706">
      <text
         xml:space="preserve"
         style="font-style:normal;font-weight:normal;font-size:3.52777791px;line-height:1.25;font-family:sans-serif;letter-spacing:0px;word-spacing:0px;fill:#000000;fill-opacity:0.78431374;stroke:none;stroke-width:0.26458594;"
         x="126.58601"
         y="164.70999"
         id="text4547"
         transform="scale(1.0000099,0.99999008)"><tspan
           sodipodi:role="line"
           id="tspan4545"
           x="126.58601"
           y="164.70999"
           style="font-size:3.52777791px;stroke-width:0.26458594;fill:#000000;fill-opacity:0.78431374;">2</tspan></text>
      <text
         xml:space="preserve"
         style="font-style:normal;font-weight:normal;font-size:3.52777791px;line-height:1.25;font-family:sans-serif;letter-spacing:0px;word-spacing:0px;fill:#000000;fill-opacity:0.78431374;stroke:none;stroke-width:0.26458594;"
         x="147.94368"
         y="164.70999"
         id="text4555"
         transform="scale(1.0000099,0.9999901)"><tspan
           sodipodi:role="line"
           id="tspan4553"
           x="147.94368"
           y="164.70999"
           style="font-size:3.52777791px;stroke-width:0.26458594;fill:#000000;fill-opacity:0.78431374;">4</tspan></text>
      <text
         xml:space="preserve"
         style="font-style:normal;font-weight:normal;font-size:3.52777791px;line-height:1.25;font-family:sans-serif;letter-spacing:0px;word-spacing:0px;fill:#000000;fill-opacity:0.78431374;stroke:none;stroke-width:0.26458594;"
         x="169.07568"
         y="164.70999"
         id="text4563"
         transform="scale(1.0000099,0.9999901)"><tspan
           sodipodi:role="line"
           id="tspan4561"
           x="169.07568"
           y="164.70999"
           style="font-size:3.52777791px;stroke-width:0.26458594;fill:#000000;fill-opacity:0.78431374;">6</tspan></text>
      <text
         xml:space="preserve"
         style="font-style:normal;font-weight:normal;font-size:3.52777791px;line-height:1.25;font-family:sans-serif;letter-spacing:0px;word-spacing:0px;fill:#000000;fill-opacity:0.78431374;stroke:none;stroke-width:0.26458594;"
         x="190.35411"
         y="164.70988"
         id="text4571"
         transform="scale(1.0000099,0.9999901)"><tspan
           sodipodi:role="line"
           id="tspan4569"
           x="190.35411"
           y="164.70988"
           style="font-size:3.52777791px;stroke-width:0.26458594;fill:#000000;fill-opacity:0.78431374;">8</tspan></text>
      <text
         xml:space="preserve"
         style="font-style:normal;font-weight:normal;font-size:3.52777791px;line-height:1.25;font-family:sans-serif;letter-spacing:0px;word-spacing:0px;fill:#000000;fill-opacity:0.78431373;stroke:none;stroke-width:0.26458594"
         x="82.665619"
         y="164.70999"
         id="text4659"
         transform="scale(1.0000099,0.9999901)"><tspan
           sodipodi:role="line"
           id="tspan4657"
           x="82.665619"
           y="164.70999"
           style="font-size:3.52777791px;fill:#000000;fill-opacity:0.78431373;stroke-width:0.26458594">-2</tspan></text>
      <text
         xml:space="preserve"
         style="font-style:normal;font-weight:normal;font-size:3.52777791px;line-height:1.25;font-family:sans-serif;letter-spacing:0px;word-spacing:0px;fill:#000000;fill-opacity:0.78431373;stroke:none;stroke-width:0.26458594"
         x="61.690372"
         y="164.70999"
         id="text4667"
         transform="scale(1.0000099,0.9999901)"><tspan
           sodipodi:role="line"
           id="tspan4665"
           x="61.690372"
           y="164.70999"
           style="font-size:3.52777791px;fill:#000000;fill-opacity:0.78431373;stroke-width:0.26458594">-4</tspan></text>
      <text
         xml:space="preserve"
         style="font-style:normal;font-weight:normal;font-size:3.52777791px;line-height:1.25;font-family:sans-serif;letter-spacing:0px;word-spacing:0px;fill:#000000;fill-opacity:0.78431373;stroke:none;stroke-width:0.26458594"
         x="40.489464"
         y="164.70999"
         id="text4675"
         transform="scale(1.0000099,0.9999901)"><tspan
           sodipodi:role="line"
           id="tspan4673"
           x="40.489464"
           y="164.70999"
           style="font-size:3.52777791px;fill:#000000;fill-opacity:0.78431373;stroke-width:0.26458594">-6</tspan></text>
      <text
         xml:space="preserve"
         style="font-style:normal;font-weight:normal;font-size:3.52777791px;line-height:1.25;font-family:sans-serif;letter-spacing:0px;word-spacing:0px;fill:#000000;fill-opacity:0.78431373;stroke:none;stroke-width:0.26458594"
         x="19.434971"
         y="164.70988"
         id="text4683"
         transform="scale(1.0000099,0.9999901)"><tspan
           sodipodi:role="line"
           id="tspan4681"
           x="19.434971"
           y="164.70988"
           style="font-size:3.52777791px;fill:#000000;fill-opacity:0.78431373;stroke-width:0.26458594">-8</tspan></text>
    </g>
    <g
       id="g5728">
      <text
         transform="scale(1.0000099,0.9999901)"
         id="text4730"
         y="164.3269"
         x="116.04124"
         style="font-style:normal;font-weight:normal;font-size:2.53889179px;line-height:1.25;font-family:sans-serif;letter-spacing:0px;word-spacing:0px;fill:#000000;fill-opacity:0.78431374;stroke:none;stroke-width:0.19041875;"
         xml:space="preserve"><tspan
           style="font-size:2.53889179px;stroke-width:0.19041875;fill:#000000;fill-opacity:0.78431374;"
           y="164.3269"
           x="116.04124"
           id="tspan4728"
           sodipodi:role="line">1</tspan></text>
      <text
         transform="scale(1.0000099,0.9999901)"
         id="text4551"
         y="164.28989"
         x="137.45903"
         style="font-style:normal;font-weight:normal;font-size:2.4455862px;line-height:1.25;font-family:sans-serif;letter-spacing:0px;word-spacing:0px;fill:#000000;fill-opacity:0.78431374;stroke:none;stroke-width:0.18342076;"
         xml:space="preserve"><tspan
           style="font-size:2.4455862px;stroke-width:0.18342076;fill:#000000;fill-opacity:0.78431374;"
           y="164.28989"
           x="137.45903"
           id="tspan4549"
           sodipodi:role="line">3</tspan></text>
      <text
         transform="scale(1.0000099,0.9999901)"
         id="text4559"
         y="164.28912"
         x="158.77618"
         style="font-style:normal;font-weight:normal;font-size:2.49546337px;line-height:1.25;font-family:sans-serif;letter-spacing:0px;word-spacing:0px;fill:#000000;fill-opacity:0.78431374;stroke:none;stroke-width:0.18716158;"
         xml:space="preserve"><tspan
           style="font-size:2.49546337px;stroke-width:0.18716158;fill:#000000;fill-opacity:0.78431374;"
           y="164.28912"
           x="158.77618"
           id="tspan4557"
           sodipodi:role="line">5</tspan></text>
      <text
         transform="scale(1.0000099,0.9999901)"
         id="text4567"
         y="164.3269"
         x="179.81876"
         style="font-style:normal;font-weight:normal;font-size:2.54741716px;line-height:1.25;font-family:sans-serif;letter-spacing:0px;word-spacing:0px;fill:#000000;fill-opacity:0.78431374;stroke:none;stroke-width:0.19105816;"
         xml:space="preserve"><tspan
           style="font-size:2.54741716px;stroke-width:0.19105816;fill:#000000;fill-opacity:0.78431374;"
           y="164.3269"
           x="179.81876"
           id="tspan4565"
           sodipodi:role="line">7</tspan></text>
      <text
         transform="scale(1.0000099,0.9999901)"
         id="text4575"
         y="164.29221"
         x="200.99678"
         style="font-style:normal;font-weight:normal;font-size:2.45032573px;line-height:1.25;font-family:sans-serif;letter-spacing:0px;word-spacing:0px;fill:#000000;fill-opacity:0.78431374;stroke:none;stroke-width:0.18377623;"
         xml:space="preserve"><tspan
           style="font-size:2.45032573px;stroke-width:0.18377623;fill:#000000;fill-opacity:0.78431374;"
           y="164.29221"
           x="200.99678"
           id="tspan4573"
           sodipodi:role="line">9</tspan></text>
      <text
         transform="scale(1.0000099,0.9999901)"
         id="text4655"
         y="164.3269"
         x="93.287308"
         style="font-style:normal;font-weight:normal;font-size:2.53889179px;line-height:1.25;font-family:sans-serif;letter-spacing:0px;word-spacing:0px;fill:#000000;fill-opacity:0.78431373;stroke:none;stroke-width:0.19041875"
         xml:space="preserve"><tspan
           style="font-size:2.53889179px;fill:#000000;fill-opacity:0.78431373;stroke-width:0.19041875"
           y="164.3269"
           x="93.287308"
           id="tspan4653"
           sodipodi:role="line">-1</tspan></text>
      <text
         transform="scale(1.0000099,0.9999901)"
         id="text4663"
         y="164.28989"
         x="72.372177"
         style="font-style:normal;font-weight:normal;font-size:2.4455862px;line-height:1.25;font-family:sans-serif;letter-spacing:0px;word-spacing:0px;fill:#000000;fill-opacity:0.78431373;stroke:none;stroke-width:0.18342076"
         xml:space="preserve"><tspan
           style="font-size:2.4455862px;fill:#000000;fill-opacity:0.78431373;stroke-width:0.18342076"
           y="164.28989"
           x="72.372177"
           id="tspan4661"
           sodipodi:role="line">-3</tspan></text>
      <text
         transform="scale(1.0000099,0.9999901)"
         id="text4671"
         y="164.28912"
         x="51.356422"
         style="font-style:normal;font-weight:normal;font-size:2.49546337px;line-height:1.25;font-family:sans-serif;letter-spacing:0px;word-spacing:0px;fill:#000000;fill-opacity:0.78431373;stroke:none;stroke-width:0.18716158"
         xml:space="preserve"><tspan
           style="font-size:2.49546337px;fill:#000000;fill-opacity:0.78431373;stroke-width:0.18716158"
           y="164.28912"
           x="51.356422"
           id="tspan4669"
           sodipodi:role="line">-5</tspan></text>
      <text
         transform="scale(1.0000099,0.9999901)"
         id="text4679"
         y="164.3269"
         x="30.066076"
         style="font-style:normal;font-weight:normal;font-size:2.54741716px;line-height:1.25;font-family:sans-serif;letter-spacing:0px;word-spacing:0px;fill:#000000;fill-opacity:0.78431373;stroke:none;stroke-width:0.19105816"
         xml:space="preserve"><tspan
           style="font-size:2.54741716px;fill:#000000;fill-opacity:0.78431373;stroke-width:0.19105816"
           y="164.3269"
           x="30.066076"
           id="tspan4677"
           sodipodi:role="line">-7</tspan></text>
      <text
         transform="scale(1.0000099,0.9999901)"
         id="text4687"
         y="164.29221"
         x="8.9111843"
         style="font-style:normal;font-weight:normal;font-size:2.45032573px;line-height:1.25;font-family:sans-serif;letter-spacing:0px;word-spacing:0px;fill:#000000;fill-opacity:0.78431373;stroke:none;stroke-width:0.18377623"
         xml:space="preserve"><tspan
           style="font-size:2.45032573px;fill:#000000;fill-opacity:0.78431373;stroke-width:0.18377623"
           y="164.29221"
           x="8.9111843"
           id="tspan4685"
           sodipodi:role="line">-9</tspan></text>
    </g>
    <g
       id="g5688">
      <text
         xml:space="preserve"
         style="font-style:normal;font-weight:normal;font-size:2.53921843px;line-height:1.25;font-family:sans-serif;letter-spacing:0px;word-spacing:0px;fill:#000000;fill-opacity:0.78431373;stroke:none;stroke-width:0.19044326"
         x="109.62644"
         y="149.76088"
         id="text4615"
         transform="scale(1.0000099,0.9999901)"><tspan
           sodipodi:role="line"
           id="tspan4613"
           x="109.62644"
           y="149.76088"
           style="font-size:2.53921843px;fill:#000000;fill-opacity:0.78431373;stroke-width:0.19044326">1</tspan></text>
      <text
         xml:space="preserve"
         style="font-style:normal;font-weight:normal;font-size:2.44570947px;line-height:1.25;font-family:sans-serif;letter-spacing:0px;word-spacing:0px;fill:#000000;fill-opacity:0.78431373;stroke:none;stroke-width:0.18343"
         x="109.68003"
         y="128.56346"
         id="text4623"
         transform="scale(1.0000603,0.99993971)"><tspan
           sodipodi:role="line"
           id="tspan4621"
           x="109.68003"
           y="128.56346"
           style="font-size:2.44570947px;fill:#000000;fill-opacity:0.78431373;stroke-width:0.18343">3</tspan></text>
      <text
         xml:space="preserve"
         style="font-style:normal;font-weight:normal;font-size:2.49540925px;line-height:1.25;font-family:sans-serif;letter-spacing:0px;word-spacing:0px;fill:#000000;fill-opacity:0.78431373;stroke:none;stroke-width:0.18715751"
         x="109.65437"
         y="107.38702"
         id="text4631"
         transform="scale(0.9999882,1.0000118)"><tspan
           sodipodi:role="line"
           id="tspan4629"
           x="109.65437"
           y="107.38702"
           style="font-size:2.49540925px;fill:#000000;fill-opacity:0.78431373;stroke-width:0.18715751">5</tspan></text>
      <text
         xml:space="preserve"
         style="font-style:normal;font-weight:normal;font-size:2.54741716px;line-height:1.25;font-family:sans-serif;letter-spacing:0px;word-spacing:0px;fill:#000000;fill-opacity:0.78431373;stroke:none;stroke-width:0.19105816"
         x="109.64548"
         y="86.260246"
         id="text4639"
         transform="scale(1.0000099,0.9999901)"><tspan
           sodipodi:role="line"
           id="tspan4637"
           x="109.64548"
           y="86.260246"
           style="font-size:2.54741716px;fill:#000000;fill-opacity:0.78431373;stroke-width:0.19105816">7</tspan></text>
      <text
         xml:space="preserve"
         style="font-style:normal;font-weight:normal;font-size:2.45032573px;line-height:1.25;font-family:sans-serif;letter-spacing:0px;word-spacing:0px;fill:#000000;fill-opacity:0.78431373;stroke:none;stroke-width:0.18377623"
         x="109.70506"
         y="65.05867"
         id="text4647"
         transform="scale(1.0000099,0.9999901)"><tspan
           sodipodi:role="line"
           id="tspan4645"
           x="109.70506"
           y="65.05867"
           style="font-size:2.45032573px;fill:#000000;fill-opacity:0.78431373;stroke-width:0.18377623">9</tspan></text>
      <text
         transform="scale(1.0000099,0.9999901)"
         id="text4651"
         y="43.891796"
         x="108.87592"
         style="font-style:normal;font-weight:normal;font-size:2.45032573px;line-height:1.25;font-family:sans-serif;letter-spacing:0px;word-spacing:0px;fill:#000000;fill-opacity:0.78431373;stroke:none;stroke-width:0.18377623"
         xml:space="preserve"><tspan
           style="font-size:2.45032573px;fill:#000000;fill-opacity:0.78431373;stroke-width:0.18377623"
           y="43.891796"
           x="108.87592"
           id="tspan4649"
           sodipodi:role="line">11</tspan></text>
      <text
         transform="scale(1.0000099,0.99999008)"
         id="text4699"
         y="170.92775"
         x="109.62644"
         style="font-style:normal;font-weight:normal;font-size:2.53921843px;line-height:1.25;font-family:sans-serif;letter-spacing:0px;word-spacing:0px;fill:#000000;fill-opacity:0.78431373;stroke:none;stroke-width:0.19044326"
         xml:space="preserve"><tspan
           style="font-size:2.53921843px;fill:#000000;fill-opacity:0.78431373;stroke-width:0.19044326"
           y="170.92775"
           x="109.62644"
           id="tspan4697"
           sodipodi:role="line">-1</tspan></text>
      <text
         transform="scale(1.0000603,0.99993971)"
         id="text4707"
         y="192.06729"
         x="109.68003"
         style="font-style:normal;font-weight:normal;font-size:2.44570947px;line-height:1.25;font-family:sans-serif;letter-spacing:0px;word-spacing:0px;fill:#000000;fill-opacity:0.78431373;stroke:none;stroke-width:0.18343"
         xml:space="preserve"><tspan
           style="font-size:2.44570947px;fill:#000000;fill-opacity:0.78431373;stroke-width:0.18343"
           y="192.06729"
           x="109.68003"
           id="tspan4705"
           sodipodi:role="line">-3</tspan></text>
      <text
         transform="scale(0.9999882,1.0000118)"
         id="text4715"
         y="213.2191"
         x="109.65437"
         style="font-style:normal;font-weight:normal;font-size:2.49540925px;line-height:1.25;font-family:sans-serif;letter-spacing:0px;word-spacing:0px;fill:#000000;fill-opacity:0.78431373;stroke:none;stroke-width:0.18715751"
         xml:space="preserve"><tspan
           style="font-size:2.49540925px;fill:#000000;fill-opacity:0.78431373;stroke-width:0.18715751"
           y="213.2191"
           x="109.65437"
           id="tspan4713"
           sodipodi:role="line">-5</tspan></text>
      <text
         transform="scale(1.0000099,0.9999901)"
         id="text4723"
         y="234.42838"
         x="109.64548"
         style="font-style:normal;font-weight:normal;font-size:2.54741716px;line-height:1.25;font-family:sans-serif;letter-spacing:0px;word-spacing:0px;fill:#000000;fill-opacity:0.78431373;stroke:none;stroke-width:0.19105816"
         xml:space="preserve"><tspan
           style="font-size:2.54741716px;fill:#000000;fill-opacity:0.78431373;stroke-width:0.19105816"
           y="234.42838"
           x="109.64548"
           id="tspan4721"
           sodipodi:role="line">-7</tspan></text>
      <text
         transform="scale(1.0000099,0.9999901)"
         id="text4731"
         y="255.56056"
         x="109.70506"
         style="font-style:normal;font-weight:normal;font-size:2.45032573px;line-height:1.25;font-family:sans-serif;letter-spacing:0px;word-spacing:0px;fill:#000000;fill-opacity:0.78431373;stroke:none;stroke-width:0.18377623"
         xml:space="preserve"><tspan
           style="font-size:2.45032573px;fill:#000000;fill-opacity:0.78431373;stroke-width:0.18377623"
           y="255.56056"
           x="109.70506"
           id="tspan4729"
           sodipodi:role="line">-9</tspan></text>
      <text
         xml:space="preserve"
         style="font-style:normal;font-weight:normal;font-size:2.45032573px;line-height:1.25;font-family:sans-serif;letter-spacing:0px;word-spacing:0px;fill:#000000;fill-opacity:0.78431373;stroke:none;stroke-width:0.18377623"
         x="108.87592"
         y="276.79678"
         id="text4735"
         transform="scale(1.0000099,0.9999901)"><tspan
           sodipodi:role="line"
           id="tspan4733"
           x="108.87592"
           y="276.79678"
           style="font-size:2.45032573px;fill:#000000;fill-opacity:0.78431373;stroke-width:0.18377623">-11</tspan></text>
    </g>
    <g
       id="g5754">
      <text
         transform="scale(1.0000099,0.9999901)"
         id="text4619"
         y="139.57431"
         x="109.32521"
         style="font-style:normal;font-weight:normal;font-size:3.52801156px;line-height:1.25;font-family:sans-serif;letter-spacing:0px;word-spacing:0px;fill:#000000;fill-opacity:0.78431373;stroke:none;stroke-width:0.26460347"
         xml:space="preserve"><tspan
           style="font-size:3.52801156px;fill:#000000;fill-opacity:0.78431373;stroke-width:0.26460347"
           y="139.57431"
           x="109.32521"
           id="tspan4617"
           sodipodi:role="line">2</tspan></text>
      <text
         transform="scale(1.0000099,0.9999901)"
         id="text4627"
         y="118.40744"
         x="109.46992"
         style="font-style:normal;font-weight:normal;font-size:3.52777791px;line-height:1.25;font-family:sans-serif;letter-spacing:0px;word-spacing:0px;fill:#000000;fill-opacity:0.78431373;stroke:none;stroke-width:0.26458594"
         xml:space="preserve"><tspan
           style="font-size:3.52777791px;fill:#000000;fill-opacity:0.78431373;stroke-width:0.26458594"
           y="118.40744"
           x="109.46992"
           id="tspan4625"
           sodipodi:role="line">4</tspan></text>
      <text
         transform="scale(1.0000099,0.9999901)"
         id="text4635"
         y="97.187164"
         x="109.36657"
         style="font-style:normal;font-weight:normal;font-size:3.52777791px;line-height:1.25;font-family:sans-serif;letter-spacing:0px;word-spacing:0px;fill:#000000;fill-opacity:0.78431373;stroke:none;stroke-width:0.26458594"
         xml:space="preserve"><tspan
           style="font-size:3.52777791px;fill:#000000;fill-opacity:0.78431373;stroke-width:0.26458594"
           y="97.187164"
           x="109.36657"
           id="tspan4633"
           sodipodi:role="line">6</tspan></text>
      <text
         transform="scale(1.0000099,0.9999901)"
         id="text4643"
         y="76.015121"
         x="109.39241"
         style="font-style:normal;font-weight:normal;font-size:3.52777791px;line-height:1.25;font-family:sans-serif;letter-spacing:0px;word-spacing:0px;fill:#000000;fill-opacity:0.78431373;stroke:none;stroke-width:0.26458594"
         xml:space="preserve"><tspan
           style="font-size:3.52777791px;fill:#000000;fill-opacity:0.78431373;stroke-width:0.26458594"
           y="76.015121"
           x="109.39241"
           id="tspan4641"
           sodipodi:role="line">8</tspan></text>
      <text
         xml:space="preserve"
         style="font-style:normal;font-weight:normal;font-size:3.52777791px;line-height:1.25;font-family:sans-serif;letter-spacing:0px;word-spacing:0px;fill:#000000;fill-opacity:0.78431373;stroke:none;stroke-width:0.26458594"
         x="108.14615"
         y="54.848244"
         id="text4691"
         transform="scale(1.0000099,0.9999901)"><tspan
           sodipodi:role="line"
           id="tspan4689"
           x="108.14615"
           y="54.848244"
           style="font-size:3.52777791px;fill:#000000;fill-opacity:0.78431373;stroke-width:0.26458594">10</tspan></text>
      <text
         transform="scale(1.0000099,0.9999901)"
         id="text4695"
         y="33.681366"
         x="108.14442"
         style="font-style:normal;font-weight:normal;font-size:3.52777791px;line-height:1.25;font-family:sans-serif;letter-spacing:0px;word-spacing:0px;fill:#000000;fill-opacity:0.78431373;stroke:none;stroke-width:0.26458594"
         xml:space="preserve"><tspan
           style="font-size:3.52777791px;fill:#000000;fill-opacity:0.78431373;stroke-width:0.26458594"
           y="33.681366"
           x="108.14442"
           id="tspan4693"
           sodipodi:role="line">12</tspan></text>
      <text
         xml:space="preserve"
         style="font-style:normal;font-weight:normal;font-size:3.52801156px;line-height:1.25;font-family:sans-serif;letter-spacing:0px;word-spacing:0px;fill:#000000;fill-opacity:0.78431373;stroke:none;stroke-width:0.26460347"
         x="109.32521"
         y="181.90807"
         id="text4703"
         transform="scale(1.0000099,0.9999901)"><tspan
           sodipodi:role="line"
           id="tspan4701"
           x="109.32521"
           y="181.90807"
           style="font-size:3.52801156px;fill:#000000;fill-opacity:0.78431373;stroke-width:0.26460347">-2</tspan></text>
      <text
         xml:space="preserve"
         style="font-style:normal;font-weight:normal;font-size:3.52777791px;line-height:1.25;font-family:sans-serif;letter-spacing:0px;word-spacing:0px;fill:#000000;fill-opacity:0.78431373;stroke:none;stroke-width:0.26458594"
         x="109.46992"
         y="203.07494"
         id="text4711"
         transform="scale(1.0000099,0.9999901)"><tspan
           sodipodi:role="line"
           id="tspan4709"
           x="109.46992"
           y="203.07494"
           style="font-size:3.52777791px;fill:#000000;fill-opacity:0.78431373;stroke-width:0.26458594">-4</tspan></text>
      <text
         xml:space="preserve"
         style="font-style:normal;font-weight:normal;font-size:3.52777791px;line-height:1.25;font-family:sans-serif;letter-spacing:0px;word-spacing:0px;fill:#000000;fill-opacity:0.78431373;stroke:none;stroke-width:0.26458594"
         x="109.36657"
         y="224.18842"
         id="text4719"
         transform="scale(1.0000099,0.9999901)"><tspan
           sodipodi:role="line"
           id="tspan4717"
           x="109.36657"
           y="224.18842"
           style="font-size:3.52777791px;fill:#000000;fill-opacity:0.78431373;stroke-width:0.26458594">-6</tspan></text>
      <text
         xml:space="preserve"
         style="font-style:normal;font-weight:normal;font-size:3.52777791px;line-height:1.25;font-family:sans-serif;letter-spacing:0px;word-spacing:0px;fill:#000000;fill-opacity:0.78431373;stroke:none;stroke-width:0.26458594"
         x="109.39241"
         y="245.35013"
         id="text4727"
         transform="scale(1.0000099,0.9999901)"><tspan
           sodipodi:role="line"
           id="tspan4725"
           x="109.39241"
           y="245.35013"
           style="font-size:3.52777791px;fill:#000000;fill-opacity:0.78431373;stroke-width:0.26458594">-8</tspan></text>
      <text
         transform="scale(1.0000099,0.9999901)"
         id="text4739"
         y="266.52747"
         x="109.20447"
         style="font-style:normal;font-weight:normal;font-size:3.52777791px;line-height:1.25;font-family:sans-serif;letter-spacing:0px;word-spacing:0px;fill:#000000;fill-opacity:0.78431373;stroke:none;stroke-width:0.26458594"
         xml:space="preserve"><tspan
           style="font-size:3.52777791px;fill:#000000;fill-opacity:0.78431373;stroke-width:0.26458594"
           y="266.52747"
           x="109.20447"
           id="tspan4737"
           sodipodi:role="line">-10</tspan></text>
      <text
         xml:space="preserve"
         style="font-style:normal;font-weight:normal;font-size:3.52777791px;line-height:1.25;font-family:sans-serif;letter-spacing:0px;word-spacing:0px;fill:#000000;fill-opacity:0.78431373;stroke:none;stroke-width:0.26458594"
         x="109.20274"
         y="287.80093"
         id="text4743"
         transform="scale(1.0000099,0.9999901)"><tspan
           sodipodi:role="line"
           id="tspan4741"
           x="109.20274"
           y="287.80093"
           style="font-size:3.52777791px;fill:#000000;fill-opacity:0.78431373;stroke-width:0.26458594">-12</tspan></text>
    </g>
    <text
       xml:space="preserve"
       style="font-style:italic;font-variant:normal;font-weight:normal;font-stretch:normal;font-size:5.91235256px;line-height:1.25;font-family:sans-serif;-inkscape-font-specification:'sans-serif Italic';letter-spacing:0px;word-spacing:0px;fill:#c80000;fill-opacity:0.78431373;stroke:none;stroke-width:0.22171322"
       x="99.956055"
       y="26.501501"
       id="text6034"><tspan
         sodipodi:role="line"
         id="tspan6032"
         x="99.956055"
         y="26.501501"
         style="font-style:italic;font-variant:normal;font-weight:normal;font-stretch:normal;font-family:sans-serif;-inkscape-font-specification:'sans-serif Italic';fill:#c80000;fill-opacity:0.78431373;stroke-width:0.22171322">y</tspan></text>
    <text
       id="text6038"
       y="165.14317"
       x="205.78946"
       style="font-style:italic;font-variant:normal;font-weight:normal;font-stretch:normal;font-size:5.91235256px;line-height:1.25;font-family:sans-serif;-inkscape-font-specification:'sans-serif Italic';letter-spacing:0px;word-spacing:0px;fill:#c80000;fill-opacity:0.78431373;stroke:none;stroke-width:0.22171322"
       xml:space="preserve"><tspan
         style="font-style:italic;font-variant:normal;font-weight:normal;font-stretch:normal;font-family:sans-serif;-inkscape-font-specification:'sans-serif Italic';fill:#c80000;fill-opacity:0.78431373;stroke-width:0.22171322"
         y="165.14317"
         x="205.78946"
         id="tspan6036"
         sodipodi:role="line">x</tspan></text>
  </g>
</svg>
